tenantId,clientId,origin,destination,sortLevel,sourceClientId,courierCode,shippingMethod,nextLocation,Is Active
4019,4019,DH-BLR,HYD-DC,1,2297,ML,NORMAL,HYD-INTER,1
4019,4019,DH-BLR,HYD-DC,2,2297,ML,NORMAL,HYD-EXTER,1
4019,4019,DH-HYD,HYD-DC,1,2297,ML,NORMAL,HYD-INTER,1
4019,4019,DH-HYD,HYD-DC,2,2297,ML,NORMAL,HYD-ExternaL,1